{
    "parent": "unlogicii:block/smart_coal_gun",
    "display": {
      "thirdperson": {
        "rotation": [ 90, 180, 0 ],
        "translation": [ -0.2, -1.3, -3 ],
        "scale": [ 2.5, 2.5, 2.0 ]
      },
      "firstperson": {
        "rotation": [ 40, -25, 25 ],
        "translation": [ 3, 6, 0 ],
        "scale": [ 5.0, 5.0, 5.0 ]
      }
    }
}
