{
  "variants": {
    "facing=down,triggered=true":  { "model": "unlogicii:insane_dispenser_vertical", "x": 180 },
    "facing=up,triggered=true":    { "model": "unlogicii:insane_dispenser_vertical" },
    "facing=north,triggered=true": { "model": "unlogicii:insane_dispenser" },
    "facing=south,triggered=true": { "model": "unlogicii:insane_dispenser", "y": 180 },
    "facing=west,triggered=true":  { "model": "unlogicii:insane_dispenser", "y": 270 },
    "facing=east,triggered=true":  { "model": "unlogicii:insane_dispenser", "y": 90 },
    "facing=down,triggered=false":  { "model": "unlogicii:insane_dispenser_vertical", "x": 180 },
    "facing=up,triggered=false":    { "model": "unlogicii:insane_dispenser_vertical" },
    "facing=north,triggered=false": { "model": "unlogicii:insane_dispenser" },
    "facing=south,triggered=false": { "model": "unlogicii:insane_dispenser", "y": 180 },
    "facing=west,triggered=false":  { "model": "unlogicii:insane_dispenser", "y": 270 },
    "facing=east,triggered=false":  { "model": "unlogicii:insane_dispenser", "y": 90 }
  }
}
